{
	"info": {
		"_postman_id": "00789c70-920a-46fb-88bc-8ef2bc8a6342",
		"name": "s35",
		"schema": "https://schema.getpostman.com/json/collection/v2.1.0/collection.json",
		"_exporter_id": "27193784"
	},
	"item": [
		{
			"name": "discussion",
			"item": [
				{
					"name": "POST add task",
					"request": {
						"method": "POST",
						"header": [],
						"body": {
							"mode": "raw",
							"raw": "{\r\n    \"name\" : \"Eating\"\r\n}",
							"options": {
								"raw": {
									"language": "json"
								}
							}
						},
						"url": {
							"raw": "localhost:3001/tasks",
							"host": [
								"localhost"
							],
							"port": "3001",
							"path": [
								"tasks"
							]
						}
					},
					"response": []
				},
				{
					"name": "GET alltask",
					"request": {
						"method": "GET",
						"header": [],
						"url": {
							"raw": "localhost:3001/tasks",
							"host": [
								"localhost"
							],
							"port": "3001",
							"path": [
								"tasks"
							]
						}
					},
					"response": []
				}
			]
		},
		{
			"name": "Activity",
			"item": [
				{
					"name": "POST addUser",
					"request": {
						"method": "POST",
						"header": [],
						"body": {
							"mode": "raw",
							"raw": "{\r\n    \"username\": \"\",\r\n    \"password\": \"\"\r\n}",
							"options": {
								"raw": {
									"language": "json"
								}
							}
						},
						"url": {
							"raw": "localhost:3001/signup",
							"host": [
								"localhost"
							],
							"port": "3001",
							"path": [
								"signup"
							]
						}
					},
					"response": []
				}
			]
		}
	]
}